{
  "developmentRegion" : "en",
  "project" : "ios-playground.xcodeproj",
  "targetLocale" : "de",
  "toolInfo" : {
    "toolBuildNumber" : "13E113",
    "toolID" : "com.apple.dt.xcode",
    "toolName" : "Xcode",
    "toolVersion" : "13.3"
  },
  "version" : "1.0"
}